<?xml version="1.0"?>
<!DOCTYPE svg PUBLIC "-//W3C//DTD SVG 1.1//EN" "http://www.w3.org/Graphics/SVG/1.1/DTD/svg11.dtd">
<svg width="9.179999999999222mm" height="49.14160758665466mm" viewBox="0 0 9.179999999999222 49.14160758665466" xmlns="http://www.w3.org/2000/svg" version="1.1">
<g id="Sketch" transform="translate(4.590000,44.570804) scale(1,-1)">
<path id="Sketch_w0000"  d="M -4.499999999999225 1.078e-12 L -4.499999999999989 40.00000000000005 A 4.5 4.5 0 0 0 4.5 40L 4.499999999999235 -7.2e-14 A 4.5 4.5 0 1 0 -4.5 1.90393e-12" stroke="#000000" stroke-width="0.35 px" style="stroke-width:0.35;stroke-miterlimit:4;stroke-dasharray:none;fill:none;fill-opacity:1;fill-rule: evenodd"/>
<title>b'Sketch'</title>
</g>
</svg>