<?xml version="1.0" encoding="UTF-8" standalone="no"?>
<svg
   xmlns:dc="http://purl.org/dc/elements/1.1/"
   xmlns:cc="http://creativecommons.org/ns#"
   xmlns:rdf="http://www.w3.org/1999/02/22-rdf-syntax-ns#"
   xmlns:svg="http://www.w3.org/2000/svg"
   xmlns="http://www.w3.org/2000/svg"
   xmlns:sodipodi="http://sodipodi.sourceforge.net/DTD/sodipodi-0.dtd"
   xmlns:inkscape="http://www.inkscape.org/namespaces/inkscape"
   width="8.3537779mm"
   height="48.269875mm"
   viewBox="0 0 8.3537779 48.269875"
   version="1.1"
   id="svg866"
   inkscape:version="1.0.2 (e86c870879, 2021-01-15)"
   sodipodi:docname="Rocket_2.svg">
  <defs
     id="defs860" />
  <sodipodi:namedview
     id="base"
     pagecolor="#ffffff"
     bordercolor="#666666"
     borderopacity="1.0"
     inkscape:pageopacity="0.0"
     inkscape:pageshadow="2"
     inkscape:zoom="1.979899"
     inkscape:cx="46.494546"
     inkscape:cy="89.428598"
     inkscape:document-units="mm"
     inkscape:current-layer="layer1"
     inkscape:document-rotation="0"
     showgrid="false"
     fit-margin-top="0"
     fit-margin-left="0"
     fit-margin-right="0"
     fit-margin-bottom="0"
     inkscape:window-width="1022"
     inkscape:window-height="686"
     inkscape:window-x="0"
     inkscape:window-y="26"
     inkscape:window-maximized="0" />
  <metadata
     id="metadata863">
    <rdf:RDF>
      <cc:Work
         rdf:about="">
        <dc:format>image/svg+xml</dc:format>
        <dc:type
           rdf:resource="http://purl.org/dc/dcmitype/StillImage" />
        <dc:title></dc:title>
      </cc:Work>
    </rdf:RDF>
  </metadata>
  <g
     inkscape:label="Layer 1"
     inkscape:groupmode="layer"
     id="layer1"
     transform="translate(-95.608822,-151.24602)">
    <path
       style="fill:#0000ff;fill-opacity:1;stroke:none;stroke-width:3.37307;stroke-opacity:1"
       d="m 98.158546,199.07399 c -2.506583,-1.23276 -2.459497,-0.96964 -2.526672,-14.12039 -0.03235,-6.3344 -0.03041,-15.8593 0.0043,-21.16646 0.05981,-9.13784 0.0944,-9.69229 0.652597,-10.45914 1.997432,-2.74405 4.881949,-2.77912 6.942299,-0.0844 0.60151,0.7867 0.61075,1.00712 0.7002,16.6945 0.0499,8.7435 0.039,18.3843 -0.0242,21.42399 -0.10177,4.89745 -0.17979,5.61578 -0.68518,6.30902 -1.30721,1.79307 -3.20237,2.31815 -5.063369,1.40289 z"
       id="path845" />
  </g>
</svg>
