<?xml version="1.0" encoding="UTF-8" standalone="no"?>
<svg
   xmlns:dc="http://purl.org/dc/elements/1.1/"
   xmlns:cc="http://creativecommons.org/ns#"
   xmlns:rdf="http://www.w3.org/1999/02/22-rdf-syntax-ns#"
   xmlns:svg="http://www.w3.org/2000/svg"
   xmlns="http://www.w3.org/2000/svg"
   xmlns:sodipodi="http://sodipodi.sourceforge.net/DTD/sodipodi-0.dtd"
   xmlns:inkscape="http://www.inkscape.org/namespaces/inkscape"
   width="148.90546mm"
   height="163.93762mm"
   viewBox="0 0 148.90546 163.93762"
   version="1.1"
   id="svg17"
   sodipodi:docname="clock-Sketch (другая копия).svg"
   inkscape:version="1.0.2 (e86c870879, 2021-01-15)">
  <metadata
     id="metadata23">
    <rdf:RDF>
      <cc:Work
         rdf:about="">
        <dc:format>image/svg+xml</dc:format>
        <dc:type
           rdf:resource="http://purl.org/dc/dcmitype/StillImage" />
        <dc:title></dc:title>
      </cc:Work>
    </rdf:RDF>
  </metadata>
  <defs
     id="defs21" />
  <sodipodi:namedview
     pagecolor="#ffffff"
     bordercolor="#666666"
     borderopacity="1"
     objecttolerance="10"
     gridtolerance="10"
     guidetolerance="10"
     inkscape:pageopacity="0"
     inkscape:pageshadow="2"
     inkscape:window-width="1920"
     inkscape:window-height="999"
     id="namedview19"
     showgrid="false"
     inkscape:zoom="0.70710678"
     inkscape:cx="68.145925"
     inkscape:cy="160.86874"
     inkscape:window-x="0"
     inkscape:window-y="26"
     inkscape:window-maximized="1"
     inkscape:current-layer="svg17"
     fit-margin-top="0"
     fit-margin-left="0"
     fit-margin-right="0"
     fit-margin-bottom="0" />
  <path
     style="fill:#000000;fill-rule:evenodd;stroke-width:0.533331;stroke-miterlimit:20"
     d=""
     id="path904" />
  <g
     id="g936"
     transform="translate(-1.9278754,-1.893163)">
    <path
       style="fill:#000000;fill-rule:evenodd;stroke-width:0.533331;stroke-miterlimit:20"
       d="M 14.757396,91.093567 V 86.457662 H 39.347849 63.9383 v 4.635905 4.635904 H 39.347849 14.757396 Z"
       id="path892" />
    <path
       style="fill:#000000;fill-rule:evenodd;stroke-width:0.533331;stroke-miterlimit:20"
       d="M 15.564164,34.968452 C 13.260706,28.81191 13.628139,21.813054 16.577965,15.65756 18.693307,11.243411 23.361522,6.5589808 27.732058,4.4647254 c 9.84264,-4.71635721 20.731747,-2.8575808 28.444886,4.8555568 2.892814,2.8928138 3.286442,3.7691468 1.693016,3.7691468 -0.429094,0 -3.275516,0.818292 -6.325383,1.818426 -11.996336,3.933926 -22.831089,10.533735 -31.642561,19.274539 -1.715661,1.7019 -3.199218,3.094365 -3.296793,3.094365 -0.09758,0 -0.566053,-1.038738 -1.041059,-2.308307 z"
       id="path894" />
    <path
       style="fill:#000000;fill-rule:evenodd;stroke-width:0.533331;stroke-miterlimit:20"
       d="m 135.08936,36.12615 c -1.98779,-2.318838 -8.26744,-7.7347 -12.32576,-10.630308 -4.10866,-2.93152 -12.85087,-7.578017 -17.70684,-9.411202 -1.66288,-0.627756 -4.73831,-1.623839 -6.834297,-2.213517 -2.095984,-0.589677 -3.87033,-1.250485 -3.942988,-1.468462 -0.233688,-0.701061 4.920293,-5.5127584 7.587935,-7.0840066 7.12795,-4.1983889 15.6311,-4.54951399 23.12971,-0.9551067 8.563,4.1046138 13.89744,12.5629363 13.91594,22.0652083 0.006,3.053963 -1.07844,8.323338 -2.09049,10.158351 l -0.52384,0.949817 z"
       id="path896" />
    <path
       style="fill:#000000;fill-rule:evenodd;stroke-width:0.533331;stroke-miterlimit:20"
       d="M 67.566399,165.27032 C 42.734642,162.24926 21.028834,146.90357 9.7350497,124.38441 -2.0308337,100.92391 -0.39929212,72.44244 13.962897,50.579789 25.978049,32.289885 44.569964,20.47908 66.357033,17.295595 c 6.338623,-0.926188 18.550395,-0.613336 24.38889,0.624818 19.961407,4.233156 36.511897,15.196485 47.422657,31.41357 6.16501,9.163288 10.13758,19.093923 12.1092,30.270603 0.83503,4.733565 0.70241,19.361364 -0.22111,24.388894 -7.20444,39.22016 -43.31331,66.04317 -82.490271,61.27684 z m 15.520204,-9.08088 c 25.889237,-2.88903 47.012347,-19.71657 55.284377,-44.04179 2.61241,-7.68221 3.13878,-11.17912 3.13878,-20.852521 0,-7.498757 -0.12336,-9.237726 -0.91506,-12.899909 -5.694,-26.338923 -24.66418,-45.367905 -51.133253,-51.291759 -3.429582,-0.76755 -5.163293,-0.885828 -13.02636,-0.888686 -8.539631,-0.0031 -9.353246,0.06313 -13.907715,1.13223 -12.682368,2.97701 -23.070473,8.6468 -31.857148,17.387514 -9.984399,9.932173 -15.999972,21.377161 -18.595845,35.379705 -0.963883,5.199337 -0.972239,16.841946 -0.01584,22.065206 2.99616,16.36311 11.450416,30.47554 24.265887,40.50632 13.203952,10.33484 30.47234,15.3215 46.762175,13.50369 z"
       id="path898" />
    <path
       style="fill:#000000;fill-rule:evenodd;stroke-width:0.533331;stroke-miterlimit:20"
       d="M 74.419475,54.207888 V 29.617437 h 2.015612 2.015611 v 24.590451 24.590454 h -2.015611 -2.015612 z"
       id="path900" />
    <path
       style="fill:#000000;fill-rule:evenodd;stroke-width:0.533331;stroke-miterlimit:20"
       d="M 73.480257,100.31571 C 70.706826,99.463623 68.201693,96.853757 67.352139,93.9314 64.602912,84.47439 76.265486,77.481395 83.2081,84.424006 c 1.823897,1.823897 2.553128,3.402179 2.792706,6.044266 0.3986,4.395837 -2.491536,8.596955 -6.79301,9.874358 -2.536767,0.75333 -3.198046,0.75023 -5.727539,-0.0269 z"
       id="path902" />
    <path
       style="fill:#000000;fill-rule:evenodd;stroke-width:0.533331;stroke-miterlimit:20"
       d="m 122.18945,165.12232 c -0.66515,-0.41106 -2.52879,-2.6711 -4.14141,-5.0223 l -2.93205,-4.27491 1.118,-0.57823 c 0.6149,-0.31804 2.25229,-1.41331 3.63864,-2.43396 1.38636,-1.02064 2.66859,-1.85571 2.84941,-1.85571 0.49373,0 5.715,7.86341 6.09041,9.17237 0.48334,1.68532 -0.34928,3.74863 -1.94593,4.82216 -1.65837,1.11504 -3.06577,1.16637 -4.67707,0.17058 z"
       id="path906" />
    <path
       style="fill:#000000;fill-rule:evenodd;stroke-width:0.533331;stroke-miterlimit:20"
       d="m 26.352226,165.26352 c -1.990981,-1.11969 -2.889779,-3.99209 -1.867447,-5.96803 0.250565,-0.48429 1.629687,-2.62798 3.064714,-4.76376 l 2.609141,-3.88323 2.893669,2.06918 c 1.591516,1.13806 3.30505,2.3413 3.807854,2.67387 l 0.914185,0.60469 -2.797159,4.03122 c -1.538438,2.21717 -3.165774,4.36405 -3.616303,4.77085 -1.11514,1.00689 -3.630097,1.24048 -5.008654,0.46521 z"
       id="path908" />
  </g>
</svg>
