<?xml version="1.0"?>
<!DOCTYPE svg PUBLIC "-//W3C//DTD SVG 1.1//EN" "http://www.w3.org/Graphics/SVG/1.1/DTD/svg11.dtd">
<svg width="48.133264499999996mm" height="88.94378950000001mm" viewBox="0 0 48.133264499999996 88.94378950000001" xmlns="http://www.w3.org/2000/svg" version="1.1">
<g id="Sketch" transform="translate(-0.338630,88.471895) scale(1,-1)">
<path id="Sketch_w0000"  d="M 24.0 0.0 L 48.0 0.0 L 48.0 88.0 L 24.0 88.0 L 0.8105250000000019 64.810525 L 14.810525000000004 50.810525 L 24.0 60.0 L 24.0 0.0 " stroke="#000000" stroke-width="0.35 px" style="stroke-width:0.35;stroke-miterlimit:4;stroke-dasharray:none;fill:none;fill-opacity:1;fill-rule: evenodd"/>
<title>b'Sketch'</title>
</g>
</svg>