<?xml version="1.0" encoding="UTF-8" standalone="no"?>
<svg
   xmlns:dc="http://purl.org/dc/elements/1.1/"
   xmlns:cc="http://creativecommons.org/ns#"
   xmlns:rdf="http://www.w3.org/1999/02/22-rdf-syntax-ns#"
   xmlns:svg="http://www.w3.org/2000/svg"
   xmlns="http://www.w3.org/2000/svg"
   xmlns:sodipodi="http://sodipodi.sourceforge.net/DTD/sodipodi-0.dtd"
   xmlns:inkscape="http://www.inkscape.org/namespaces/inkscape"
   width="49.449413mm"
   height="49.598465mm"
   viewBox="0 0 49.449412 49.598466"
   version="1.1"
   id="svg10"
   sodipodi:docname="Ball_1.svg"
   inkscape:version="1.0.2 (e86c870879, 2021-01-15)">
  <metadata
     id="metadata16">
    <rdf:RDF>
      <cc:Work
         rdf:about="">
        <dc:format>image/svg+xml</dc:format>
        <dc:type
           rdf:resource="http://purl.org/dc/dcmitype/StillImage" />
        <dc:title />
      </cc:Work>
    </rdf:RDF>
  </metadata>
  <defs
     id="defs14" />
  <sodipodi:namedview
     pagecolor="#ffffff"
     bordercolor="#666666"
     borderopacity="1"
     objecttolerance="10"
     gridtolerance="10"
     guidetolerance="10"
     inkscape:pageopacity="0"
     inkscape:pageshadow="2"
     inkscape:window-width="1024"
     inkscape:window-height="687"
     id="namedview12"
     showgrid="false"
     inkscape:zoom="1.2399263"
     inkscape:cx="44.895907"
     inkscape:cy="136.68262"
     inkscape:window-x="0"
     inkscape:window-y="26"
     inkscape:window-maximized="1"
     inkscape:current-layer="svg10"
     fit-margin-top="0"
     fit-margin-left="0"
     fit-margin-right="0"
     fit-margin-bottom="0"
     inkscape:document-rotation="0" />
  <path
     style="fill:#641919;stroke-width:2.47528;fill-opacity:1"
     d="M 5.3368289,39.789352 C 2.4383218,36.162873 0.60921858,31.584594 0.11625618,26.722167 -0.29002922,22.714692 0.37355618,18.545756 2.0288857,14.706185 2.7807071,12.96232 4.5851389,10.002366 5.7423364,8.6147146 L 6.2587496,7.9954589 7.6293089,8.6863608 c 3.4335461,1.7308582 6.2718251,4.6492322 7.9718181,8.1967792 1.36827,2.855307 1.707333,4.401183 1.692084,7.714647 -0.0109,2.368963 -0.09581,3.048447 -0.581453,4.653415 -0.959305,3.170314 -2.100372,5.117581 -4.380268,7.475074 -1.503397,1.554567 -3.0644314,2.718573 -4.871579,3.63256 -0.6122513,0.309652 -1.1403826,0.558461 -1.1736246,0.55291 -0.033242,-0.0056 -0.4604983,-0.510632 -0.9494575,-1.122394 z"
     id="path841" />
  <path
     style="fill:#461919;fill-opacity:1;stroke-width:2.47528"
     d="M 22.739735,49.428246 C 17.010314,48.781117 12.109115,46.624488 8.1358644,43.002242 L 6.7619465,41.749696 8.4478852,40.840313 C 13.799157,37.953873 17.368516,32.617492 17.920128,26.678811 18.633108,19.002827 14.921866,12.151199 8.0580592,8.4716373 L 6.8197225,7.8077874 8.1647524,6.5617172 C 12.099232,2.916715 17.311875,0.64778228 22.899775,0.14793134 L 24.553519,0 v 24.782248 24.782248 l -0.586812,-0.03197 c -0.322747,-0.01759 -0.874885,-0.06451 -1.226972,-0.104277 z"
     id="path843" />
  <path
     style="fill:#461919;fill-opacity:1;stroke-width:2.47528"
     d="M 24.980292,24.828663 V 0.05886542 l 0.693505,0.0012594 c 1.455584,0.0026379 4.954539,0.65774794 6.780564,1.26952218 3.422284,1.1465706 6.450432,2.9179147 8.890793,5.2007518 l 1.360691,1.2728611 -1.593437,0.8756488 C 36.84329,11.024938 33.982345,14.441031 32.426513,19.05025 c -0.600966,1.780384 -0.696455,2.381521 -0.784365,4.937909 -0.112469,3.270502 0.182229,5.103893 1.237028,7.695833 0.893841,2.196428 1.847236,3.668032 3.568305,5.507828 1.528567,1.634009 4.209452,3.613803 5.550371,4.098864 0.381428,0.137975 0.693504,0.31796 0.693504,0.399973 0,0.08201 -0.539212,0.641919 -1.198255,1.244246 -4.174437,3.815201 -9.098653,5.946708 -15.072452,6.524296 l -1.440357,0.139264 z"
     id="path845" />
  <path
     style="fill:#641919;fill-opacity:1;stroke-width:2.47528"
     d="M 41.718761,40.425269 C 36.553717,37.704278 33.242472,33.109514 32.297367,27.3519 31.104652,20.08584 35.04474,12.416234 41.723582,9.0032376 l 1.426567,-0.7289982 0.635828,0.746852 c 4.990992,5.8624846 6.879294,14.4017576 4.875983,22.0501706 -0.828951,3.164842 -2.84185,7.053659 -4.954836,9.572476 l -0.482301,0.574934 z"
     id="path849" />
</svg>
