<?xml version="1.0" encoding="UTF-8" standalone="no"?>
<svg
   xmlns:dc="http://purl.org/dc/elements/1.1/"
   xmlns:cc="http://creativecommons.org/ns#"
   xmlns:rdf="http://www.w3.org/1999/02/22-rdf-syntax-ns#"
   xmlns:svg="http://www.w3.org/2000/svg"
   xmlns="http://www.w3.org/2000/svg"
   xmlns:sodipodi="http://sodipodi.sourceforge.net/DTD/sodipodi-0.dtd"
   xmlns:inkscape="http://www.inkscape.org/namespaces/inkscape"
   width="84.174568mm"
   height="84.100845mm"
   viewBox="0 0 84.174571 84.100848"
   version="1.1"
   id="svg6"
   sodipodi:docname="apply-Sketch (копия).svg"
   inkscape:version="1.0.2 (e86c870879, 2021-01-15)">
  <metadata
     id="metadata12">
    <rdf:RDF>
      <cc:Work
         rdf:about="">
        <dc:format>image/svg+xml</dc:format>
        <dc:type
           rdf:resource="http://purl.org/dc/dcmitype/StillImage" />
        <dc:title></dc:title>
      </cc:Work>
    </rdf:RDF>
  </metadata>
  <defs
     id="defs10" />
  <sodipodi:namedview
     pagecolor="#ffffff"
     bordercolor="#666666"
     borderopacity="1"
     objecttolerance="10"
     gridtolerance="10"
     guidetolerance="10"
     inkscape:pageopacity="0"
     inkscape:pageshadow="2"
     inkscape:window-width="1920"
     inkscape:window-height="999"
     id="namedview8"
     showgrid="false"
     fit-margin-top="0"
     fit-margin-left="0"
     fit-margin-right="0"
     fit-margin-bottom="0"
     inkscape:zoom="0.63475589"
     inkscape:cx="323.1098"
     inkscape:cy="230.96553"
     inkscape:window-x="0"
     inkscape:window-y="26"
     inkscape:window-maximized="1"
     inkscape:current-layer="svg6" />
  <path
     style="fill:#3c963c;fill-opacity:1;stroke-width:0.557062"
     d="M 13.002737,71.389088 C 5.880657,64.397618 0.02953001,58.61148 2.3243324e-4,58.531004 -0.02906517,58.450526 2.7150663,55.020832 6.0983022,50.909461 l 6.1513388,-7.47522 6.035444,5.927831 c 3.319496,3.260305 6.112814,5.944148 6.207374,5.964092 0.09456,0.01995 10.417866,-12.42028 22.940681,-27.644948 L 70.201893,0 70.717691,0.41894623 C 71.001377,0.64936665 74.14523,3.711304 77.70403,7.2232515 l 6.470541,6.3853595 -29.01169,35.246117 C 39.206452,68.240093 26.106368,84.100846 26.051583,84.100846 c -0.05479,0 -5.926766,-5.720292 -13.048846,-12.711758 z"
     id="path837" />
</svg>
