<?xml version="1.0"?>
<!DOCTYPE svg PUBLIC "-//W3C//DTD SVG 1.1//EN" "http://www.w3.org/Graphics/SVG/1.1/DTD/svg11.dtd">
<svg width="48.959999999999994mm" height="88.75524271803188mm" viewBox="0 0 48.959999999999994 88.75524271803188" xmlns="http://www.w3.org/2000/svg" version="1.1">
<g id="Sketch" transform="translate(0.480000,88.377620) scale(1,-1)">
<path id="Sketch_w0000"  d="M 0.0 23.999999999999993 A 24 24 0 0 1 48 24L 48.0 64.0 A 24 24 0 0 1 0 64L 0.0 23.999999999999993 " stroke="#000000" stroke-width="0.35 px" style="stroke-width:0.35;stroke-miterlimit:4;stroke-dasharray:none;fill:none;fill-opacity:1;fill-rule: evenodd"/>
<path id="Sketch_w0001"  d="M 12.0 24.0 A 12 12 0 0 1 36 24L 36.0 64.0 A 12 12 0 0 1 12 64L 12.0 24.0 " stroke="#000000" stroke-width="0.35 px" style="stroke-width:0.35;stroke-miterlimit:4;stroke-dasharray:none;fill:none;fill-opacity:1;fill-rule: evenodd"/>
<title>b'Sketch'</title>
</g>
</svg>