<?xml version="1.0" encoding="UTF-8" standalone="no"?>
<svg
   xmlns:dc="http://purl.org/dc/elements/1.1/"
   xmlns:cc="http://creativecommons.org/ns#"
   xmlns:rdf="http://www.w3.org/1999/02/22-rdf-syntax-ns#"
   xmlns:svg="http://www.w3.org/2000/svg"
   xmlns="http://www.w3.org/2000/svg"
   xmlns:sodipodi="http://sodipodi.sourceforge.net/DTD/sodipodi-0.dtd"
   xmlns:inkscape="http://www.inkscape.org/namespaces/inkscape"
   width="89.593269mm"
   height="89.593269mm"
   viewBox="0 0 89.593266 89.593266"
   version="1.1"
   id="svg6"
   sodipodi:docname="create_contour (копия).svg"
   inkscape:version="1.0.2 (e86c870879, 2021-01-15)">
  <metadata
     id="metadata12">
    <rdf:RDF>
      <cc:Work
         rdf:about="">
        <dc:format>image/svg+xml</dc:format>
        <dc:type
           rdf:resource="http://purl.org/dc/dcmitype/StillImage" />
        <dc:title></dc:title>
      </cc:Work>
    </rdf:RDF>
  </metadata>
  <defs
     id="defs10" />
  <sodipodi:namedview
     pagecolor="#ffffff"
     bordercolor="#666666"
     borderopacity="1"
     objecttolerance="10"
     gridtolerance="10"
     guidetolerance="10"
     inkscape:pageopacity="0"
     inkscape:pageshadow="2"
     inkscape:window-width="1920"
     inkscape:window-height="999"
     id="namedview8"
     showgrid="false"
     inkscape:zoom="1.6956184"
     inkscape:cx="299.59005"
     inkscape:cy="126.4348"
     inkscape:window-x="0"
     inkscape:window-y="26"
     inkscape:window-maximized="1"
     inkscape:current-layer="svg6"
     fit-margin-top="0"
     fit-margin-left="0"
     fit-margin-right="0"
     fit-margin-bottom="0" />
  <path
     style="fill:#0f87ff;fill-opacity:1;fill-rule:evenodd;stroke-width:0.145975;stroke-miterlimit:20"
     d="M 30.011539,74.587501 V 59.581732 H 15.005769 0 V 44.796635 30.011539 h 14.873366 c 11.421058,0 14.904099,-0.03073 15.00577,-0.132403 0.101669,-0.101671 0.132403,-3.584712 0.132403,-15.00577 V 0 h 14.785096 14.785097 v 15.005769 15.00577 h 15.005769 15.00577 V 44.796635 59.581732 H 74.587501 59.581732 v 15.005769 15.00577 H 44.796635 30.011539 Z"
     id="path837" />
</svg>
