<?xml version="1.0" encoding="UTF-8" standalone="no"?>
<svg
   xmlns:dc="http://purl.org/dc/elements/1.1/"
   xmlns:cc="http://creativecommons.org/ns#"
   xmlns:rdf="http://www.w3.org/1999/02/22-rdf-syntax-ns#"
   xmlns:svg="http://www.w3.org/2000/svg"
   xmlns="http://www.w3.org/2000/svg"
   xmlns:sodipodi="http://sodipodi.sourceforge.net/DTD/sodipodi-0.dtd"
   xmlns:inkscape="http://www.inkscape.org/namespaces/inkscape"
   width="3.65342mm"
   height="7.2560902mm"
   viewBox="0 0 3.65342 7.2560902"
   version="1.1"
   id="svg1009"
   inkscape:version="1.0.2 (e86c870879, 2021-01-15)"
   sodipodi:docname="2.svg">
  <defs
     id="defs1003" />
  <sodipodi:namedview
     id="base"
     pagecolor="#ffffff"
     bordercolor="#666666"
     borderopacity="1.0"
     inkscape:pageopacity="0.0"
     inkscape:pageshadow="2"
     inkscape:zoom="3.959798"
     inkscape:cx="34.175761"
     inkscape:cy="34.096587"
     inkscape:document-units="mm"
     inkscape:current-layer="layer1"
     inkscape:document-rotation="0"
     showgrid="false"
     fit-margin-top="0"
     fit-margin-left="0"
     fit-margin-right="0"
     fit-margin-bottom="0"
     inkscape:window-width="1024"
     inkscape:window-height="685"
     inkscape:window-x="0"
     inkscape:window-y="28"
     inkscape:window-maximized="1" />
  <metadata
     id="metadata1006">
    <rdf:RDF>
      <cc:Work
         rdf:about="">
        <dc:format>image/svg+xml</dc:format>
        <dc:type
           rdf:resource="http://purl.org/dc/dcmitype/StillImage" />
        <dc:title />
      </cc:Work>
    </rdf:RDF>
  </metadata>
  <g
     inkscape:label="Layer 1"
     inkscape:groupmode="layer"
     id="layer1"
     transform="translate(-113.07805,-169.48505)">
    <path
       d="m 116.46326,172.2831 -2.34138,3.73315 h 2.24714 q 0.36245,0 0.36245,0.36244 0,0.36245 -0.36245,0.36245 h -2.89953 q -0.39144,0 -0.39144,-0.28996 0,-0.12323 0.087,-0.2682 l 2.67482,-4.26957 q 0.15948,-0.25371 0.15948,-0.55091 0,-0.45668 -0.34795,-0.79737 -0.34794,-0.34794 -0.84811,-0.34794 -0.66689,0 -1.02934,0.55816 -0.10873,0.16672 -0.28995,0.16672 -0.15222,0 -0.26821,-0.10148 -0.11598,-0.10874 -0.11598,-0.25371 0,-0.10874 0.0652,-0.20297 0.58716,-0.89886 1.63824,-0.89886 0.79737,0 1.36278,0.57266 0.56541,0.57266 0.56541,1.31929 0,0.48567 -0.26821,0.9061 z"
       style="font-style:normal;font-variant:normal;font-weight:normal;font-stretch:normal;font-size:10.5833px;line-height:1.25;font-family:'GOST Type BU';-inkscape-font-specification:'GOST Type BU';letter-spacing:0px;word-spacing:0px;fill:#000000;fill-opacity:1;stroke:none;stroke-width:0.264583"
       id="path13" />
  </g>
</svg>
