<?xml version="1.0" encoding="UTF-8" standalone="no"?>
<svg
   xmlns:dc="http://purl.org/dc/elements/1.1/"
   xmlns:cc="http://creativecommons.org/ns#"
   xmlns:rdf="http://www.w3.org/1999/02/22-rdf-syntax-ns#"
   xmlns:svg="http://www.w3.org/2000/svg"
   xmlns="http://www.w3.org/2000/svg"
   xmlns:sodipodi="http://sodipodi.sourceforge.net/DTD/sodipodi-0.dtd"
   xmlns:inkscape="http://www.inkscape.org/namespaces/inkscape"
   width="3.624418mm"
   height="7.2488298mm"
   viewBox="0 0 3.624418 7.2488298"
   version="1.1"
   id="svg1066"
   inkscape:version="1.0.2 (e86c870879, 2021-01-15)"
   sodipodi:docname="3.svg">
  <defs
     id="defs1060" />
  <sodipodi:namedview
     id="base"
     pagecolor="#ffffff"
     bordercolor="#666666"
     borderopacity="1.0"
     inkscape:pageopacity="0.0"
     inkscape:pageshadow="2"
     inkscape:zoom="3.959798"
     inkscape:cx="-17.657628"
     inkscape:cy="-7.1260427"
     inkscape:document-units="mm"
     inkscape:current-layer="layer1"
     inkscape:document-rotation="0"
     showgrid="false"
     inkscape:window-width="1024"
     inkscape:window-height="685"
     inkscape:window-x="0"
     inkscape:window-y="28"
     inkscape:window-maximized="1" />
  <metadata
     id="metadata1063">
    <rdf:RDF>
      <cc:Work
         rdf:about="">
        <dc:format>image/svg+xml</dc:format>
        <dc:type
           rdf:resource="http://purl.org/dc/dcmitype/StillImage" />
        <dc:title />
      </cc:Work>
    </rdf:RDF>
  </metadata>
  <g
     inkscape:label="Layer 1"
     inkscape:groupmode="layer"
     id="layer1"
     transform="translate(-50.348505,-160.41725)">
    <path
       d="m 52.160714,161.14213 h -1.449767 q -0.362442,0 -0.362442,-0.36244 0,-0.36244 0.362442,-0.36244 h 1.449767 q 0.855362,0 1.362781,0.56541 0.449428,0.50742 0.449428,1.23955 0,0.95685 -0.703138,1.47151 0.703138,0.55091 0.703138,1.43527 v 0.72489 q 0,0.75387 -0.529165,1.28304 -0.529165,0.52916 -1.283044,0.52916 h -1.449767 q -0.362442,0 -0.362442,-0.36244 0,-0.36244 0.362442,-0.36244 h 1.449767 q 0.449427,0 0.768376,-0.31895 0.318949,-0.31895 0.318949,-0.76837 v -0.72489 q 0,-0.44943 -0.318949,-0.76837 -0.318949,-0.31895 -0.768376,-0.31895 H 51.43583 q -0.362442,0 -0.362442,-0.36245 0,-0.36244 0.362442,-0.36244 h 0.724884 q 0.49292,0 0.790123,-0.34794 0.268207,-0.3117 0.268207,-0.76113 0,-0.43493 -0.260958,-0.73213 -0.289954,-0.33345 -0.797372,-0.33345 z"
       style="font-style:normal;font-variant:normal;font-weight:normal;font-stretch:normal;font-size:10.5833px;line-height:1.25;font-family:'GOST Type BU';-inkscape-font-specification:'GOST Type BU';letter-spacing:0px;word-spacing:0px;fill:#000000;fill-opacity:1;stroke:none;stroke-width:0.264583"
       id="path15" />
  </g>
</svg>
